
[Mesh]
  type = GeneratedMesh
  dim = 3
  nx = 40
  ny = 40
  nz = 22
  xmin = -15
  xmax = 15
  ymin = -15
  ymax = 15
  zmin = -10
  zmax = 10
  elem_type = HEX8
[]

[GlobalParams]
  len_scale = 1.0
  alpha1 = -0.1722883 # (3.766(T-765.1)*10^5) C^{-2} nm^2 (T = 293 K)
  alpha11 = -0.07253
  alpha111 = 0.26
  alpha12 = 0.75
  alpha112 = 0.61
  alpha123 = -3.67
  G110 = 0.173
  G11/G110 = 2.0
  G12/G110 = 0
  G44/G110 = 1.0
  G44P/G110 = 1.0
  polar_x = polar_x
  polar_y = polar_y
  polar_z = polar_z
  euler_angle_1 = 0.0
  euler_angle_2 = 54.74.0
  euler_angle_3 = 45.0
  potential_int = potential_int
[]



[Variables]
  [./polar_x]
    order = FIRST
    family = LAGRANGE
    [./InitialCondition]
      type = RandomIC
      min = -1e-6
      max = 1e-6
    [../]
  [../]
  [./polar_y]
    order = FIRST
    family = LAGRANGE
    [./InitialCondition]
      type = RandomIC
      min = -1e-6
      max = 1e-6
    [../]
  [../]
  [./polar_z]
    order = FIRST
    family = LAGRANGE
    [./InitialCondition]
      type = RandomIC
      min = -1e-6
      max = 1e-6
    [../]
  [../]

  [./potential_int]
    order = FIRST
    family = LAGRANGE
    [./InitialCondition]
      type = RandomIC
      min = -1e-6
      max = 1e-6
    [../]
  [../]
[]

[Kernels]
  [./bed_x]
    type = RotatedBulkEnergyDerivative
    variable = polar_x
    component = 0
  [../]
  [./bed_y]
    type = RotatedBulkEnergyDerivative
    variable = polar_y
    component = 1
  [../]
  [./bed_z]
    type = RotatedBulkEnergyDerivative
    variable = polar_z
    component = 2
  [../]
  [./walled_x]
    type = WallEnergyDerivative
    variable = polar_x
    component = 0
  [../]
  [./walled_y]
    type = WallEnergyDerivative
    variable = polar_y
    component = 1
  [../]
  [./walled_z]
     type = WallEnergyDerivative
     variable = polar_z
     component = 2
  [../]

 ##Electrostatics

  [./polar_x_electric_E]
     type = PolarElectricEStrong
     variable = potential_int
  [../]
  [./FE_E_int]
     type = Electrostatics
     variable = potential_int
     permittivity = 0.08854187
  [../]
  [./polar_electric_px]
     type = PolarElectricPStrong
     variable = polar_x
     component = 0
  [../]
  [./polar_electric_py]
     type = PolarElectricPStrong
     variable = polar_y
     component = 1
  [../]
  [./polar_electric_pz]
     type = PolarElectricPStrong
     variable = polar_z
     component = 2
  [../]

  [./polar_x_time]
     type = TimeDerivativeScaled
     variable=polar_x
     time_scale = 1.0
  [../]
  [./polar_y_time]
     type = TimeDerivativeScaled
     variable=polar_y
     time_scale = 1.0
  [../]
  [./polar_z_time]
     type = TimeDerivativeScaled
     variable = polar_z
     time_scale = 1.0
  [../]
[]


[BCs]
  [./potential_sub]
    type = DirichletBC
    variable = 'potential_int'
    value = 0.0001
    boundary = 'front back'
  [../]
[]



[Postprocessors]
   [./Fbulk]
      type = BulkEnergy
      execute_on = 'timestep_end'
    [../]
[]


[Preconditioning]
  [./smp]
    type = SMP
    full = true
    petsc_options = '-snes_view -snes_linesearch_monitor -snes_converged_reason -ksp_converged_reason'
    petsc_options_iname = '-ksp_gmres_restart  -snes_rtol -ksp_rtol -pc_type'
    petsc_options_value = '    121                1e-8      1e-8    bjacobi'
  [../]
[]

[Executioner]
  type = Transient
    [./TimeStepper]
    type = IterationAdaptiveDT
    dt = 0.8
    optimal_iterations = 6
    growth_factor = 1.4
    linear_iteration_ratio = 1000
    cutback_factor =  0.8
[../]
  solve_type = 'NEWTON'       #"PJFNK, JFNK, NEWTON"
  scheme = 'implicit-euler'   #"implicit-euler, explicit-euler, crank-nicolson, bdf2, rk-2"
  #dt = 0.5
  dtmin = 1e-13
  dtmax = 0.8
[]

[Outputs]
  print_linear_residuals = true
  print_perf_log = true
  [./out]
    type = Exodus
    file_base = outPTO111_test
    elemental_as_nodal = true
    interval = 1
  [../]
[]

